Chapter 3 Efficient Data Management in R | Visualising Data using R
…
Background reading: Chapter 18 of R for Data Science
Chapter 18 of R for Data Science gives a detailed overview of pipes and some of the underpinning technology (though the latter is rather advanced).

3.3 Tibbles

The package tibble provides tbl_df’s (or “tibbles”, which is easier to pronounce). They are a modern take on the built-in class data.frame.

One key advantage of tibbles is that they can store anything. A data.frame can only store a single value per “cell”, for example a number or a character string. However, in a tibble, you can store a list or even another tibble in a cell. An example of this is the tibble starwars from the package dplyr. The column starships contains for each row the list of starships flown by that character (which is a list of different length depending on the character.)

library(dplyr)                             # Load library dplyr which contains the data
starwars[,c("name", "starships")]          # Print columns name and starships

## # A tibble: 87 × 2
##    name               starships
##    <chr>              <list>   
##  1 Luke Skywalker     <chr [2]>
##  2 C-3PO              <chr [0]>
##  3 R2-D2              <chr [0]>
##  4 Darth Vader        <chr [1]>
##  5 Leia Organa        <chr [0]>
##  6 Owen Lars          <chr [0]>
##  7 Beru Whitesun lars <chr [0]>
##  8 R5-D4              <chr [0]>
##  9 Biggs Darklighter  <chr [1]>
## 10 Obi-Wan Kenobi     <chr [5]>
## # … with 77 more rows
…
ships <- read_delim("ships.txt", delim=' ' , na=".")

## Rows: 40 Columns: 5
## ── Column specification ────────────────────────────────────────────────────────
## Delimiter: " "
## chr (1): type
## dbl (4): year, period, service, incidents
## 
## ℹ Use `spec()` to retrieve the full column specification for this data.
## ℹ Specify the column types or set `show_col_types = FALSE` to quiet this message.

ships

## # A tibble: 40 × 5
##    type   year period service incidents
##    <chr> <dbl>  <dbl>   <dbl>     <dbl>
##  1 A        60     60     127         0
##  2 A        60     75      63         0
##  3 A        65     60      NA         3
##  4 A        65     75    1095         4
##  5 A        70     60    1512         6
##  6 A        70     75    3353        18
##  7 A        75     60       0         0
##  8 A        75     75    2244        11
##  9 B        60     60   44882        39
## 10 B        60     75   17176        29
## # … with 30 more rows
…
3.5.2 Selecting observations (rows) using filter and slice

3.5.2.1 filter

The function filter is used to select observations (or rows) in a similar way to the base R function subset.

Suppose we want to print all bike stations in Paris (rather than other départements from Île de France)

library(dplyr)
stations75 <- stations %>%
                filter(departement=="Paris")
stations75

## # A tibble: 743 × 6
##    name                                       id address   lng   lat departement
##    <chr>                                   <dbl> <chr>   <dbl> <dbl> <chr>      
##  1 PORT SOLFERINO (STATION MOBILE)           901 BERGES…  2.32  48.9 Paris      
##  2 QUAI MAURIAC  / PONT DE BERCY             903 FETE D…  2.37  48.8 Paris      
##  3 17/19 PLACE JOFFRE / ECOLE MILITAIRE      904 ECOLE …  2.30  48.9 Paris      
##  4 CONCORDE/BERGES DE SEINE (STATION MOBI…   905 BERGES…  2.32  48.9 Paris      
##  5 PORT DU GROS CAILLOU (STATION MOBILE)     908 BERGES…  2.31  48.9 Paris      
##  6 PONT D'ARCOLE (STATION MOBILE)            909 Voie G…  2.35  48.9 Paris      
##  7 ILE DE LA CITE PONT NEUF                 1001 41 QUA…  2.34  48.9 Paris      
##  8 PLACE DU CHATELET                        1002 14 AVE…  2.35  48.9 Paris      
##  9 RIVOLI SAINT DENIS                       1003 7 RUE …  2.35  48.9 Paris      
## 10 MARGUERITE DE NAVARRE                    1004 12 RUE…  2.35  48.9 Paris      
## # … with 733 more rows
…
3.5.5 Selecting variables (columns) using select

The function select can be used to subset the variables (columns) of a data set.

You can either specify the columns to retain or (with a minus) those you do not want to retain.

We can only retain the name and département of each station using either

stations.small <- stations %>%
                     select(name, departement)
stations.small

## # A tibble: 928 × 2
##    name                                      departement
##    <chr>                                     <chr>      
##  1 PORT SOLFERINO (STATION MOBILE)           Paris      
##  2 QUAI MAURIAC  / PONT DE BERCY             Paris      
##  3 17/19 PLACE JOFFRE / ECOLE MILITAIRE      Paris      
##  4 CONCORDE/BERGES DE SEINE (STATION MOBILE) Paris      
##  5 PORT DU GROS CAILLOU (STATION MOBILE)     Paris      
##  6 PONT D'ARCOLE (STATION MOBILE)            Paris      
##  7 ILE DE LA CITE PONT NEUF                  Paris      
##  8 PLACE DU CHATELET                         Paris      
##  9 RIVOLI SAINT DENIS                        Paris      
## 10 MARGUERITE DE NAVARRE                     Paris      
## # … with 918 more rows
…
3.5.7 Task

The time is currently encoded as decimal (e.g. 13.5 for 13:30). Create two columns time_hours, which contains the hour (13 in our example), and time_minutes, which contains the minutes, (30 in our example).

You can calculate time_hours as the floor of time (R function floor) and time_minutes as the remainder after integer division of 60 times time by 60 (R operator %%).

3.5.8 Answer

We can create both columns in one call to mutate.

bikes %>%
  mutate(time_hour=floor(time), time_minutes=(60*time)%%60)

## # A tibble: 67,354 × 7
##    name            available_bikes available_bike_…  time total_stands time_hour
##    <chr>                     <int>            <int> <dbl>        <int>     <dbl>
##  1 CHAMPEAUX (BAG…               9               41    13           50        13
##  2 POISSONNIÈRE -…              33                0    13           33        13
##  3 METRO ROME                    6               38    13           44        13
##  4 DE GAULLE (PAN…               2               16    13           18        13
##  5 PARC DE BELLEV…               4               22    13           26        13
##  6 SOLJENITSYNE (…              56                4    13           60        13
##  7 SERRES                        5               18    13           23        13
##  8 PYRAMIDE ARTIL…              14               40    13           54        13
##  9 SAINT GEORGES                12               10    13           22        13
## 10 MUSÉE D'ORSAY                65                0    13           65        13
## # … with 67,344 more rows, and 1 more variable: time_minutes <dbl>

The output does not show the new columns (as they would take the output of a single row to more than one line). We can show them all, for example, if we remove the station name.

bikes %>%
  mutate(time_hour=floor(time), time_minutes=(60*time)%%60) %>%
  select(-name)

## # A tibble: 67,354 × 6
##    available_bikes available_bike_sta…  time total_stands time_hour time_minutes
##              <int>               <int> <dbl>        <int>     <dbl>        <dbl>
##  1               9                  41    13           50        13            0
##  2              33                   0    13           33        13            0
##  3               6                  38    13           44        13            0
##  4               2                  16    13           18        13            0
##  5               4                  22    13           26        13            0
##  6              56                   4    13           60        13            0
##  7               5                  18    13           23        13            0
##  8              14                  40    13           54        13            0
##  9              12                  10    13           22        13            0
## 10              65                   0    13           65        13            0
## # … with 67,344 more rows

Alternatively, we can explicitly invoke the print method of the tibble and ask it to print everything.

bikes %>%
  mutate(time_hour=floor(time), time_minutes=(60*time)%%60) %>%
  print(width=Inf)

## # A tibble: 67,354 × 7
##    name                       available_bikes available_bike_stands  time
##    <chr>                                <int>                 <int> <dbl>
##  1 CHAMPEAUX (BAGNOLET)                     9                    41    13
##  2 POISSONNIÈRE - ENGHIEN                  33                     0    13
##  3 METRO ROME                               6                    38    13
##  4 DE GAULLE (PANTIN)                       2                    16    13
##  5 PARC DE BELLEVILLE (20040)               4                    22    13
##  6 SOLJENITSYNE (PUTEAUX)                  56                     4    13
##  7 SERRES                                   5                    18    13
##  8 PYRAMIDE ARTILLERIE                     14                    40    13
##  9 SAINT GEORGES                           12                    10    13
## 10 MUSÉE D'ORSAY                           65                     0    13
##    total_stands time_hour time_minutes
##           <int>     <dbl>        <dbl>
##  1           50        13            0
##  2           33        13            0
##  3           44        13            0
##  4           18        13            0
##  5           26        13            0
##  6           60        13            0
##  7           23        13            0
##  8           54        13            0
##  9           22        13            0
## 10           65        13            0
## # … with 67,344 more rows

3.5.9 Sorting data sets using arrange

The function arrange can be used to sort a data set by one or more variables.
We can sort the data set bikes by the number of available bikes suing

bikes %>%
  arrange(available_bikes)

## # A tibble: 67,354 × 5
##    name                      available_bikes available_bike_…  time total_stands
##    <chr>                               <int>            <int> <dbl>        <int>
##  1 KARMAN (AUBERVILLIERS)                  0                0    13            0
##  2 PIGALLE GERMAIN PILLON                  0               20    13           20
##  3 ROND POINT DES CHAMPS EL…               0                0    13            0
##  4 MONTCALM                                0               47    13           47
##  5 PLACE HENOCQUE VERSION 2                0               34    13           34
##  6 PLACE DES FETES                         0               19    13           19
##  7 MANIN SECRETAN                          0               20    13           20
##  8 MARTINIE (VANVES)                       0               24    13           24
##  9 HORTENSIAS (LES LILAS)                  0               22    13           22
## 10 HAIES REUNION                           0               22    13           22
## # … with 67,344 more rows

You can use the function desc to sort in descending order

bikes %>%
  arrange(desc(available_bikes))

## # A tibble: 67,354 × 5
##    name    available_bikes available_bike_stands  time total_stands
##    <chr>             <int>                 <int> <dbl>        <int>
##  1 DUPLEIX              68                     0  16.2           68
##  2 DUPLEIX              68                     0  16.2           68
##  3 DUPLEIX              67                     1  15.4           68
##  4 DUPLEIX              67                     1  15.5           68
##  5 DUPLEIX              67                     1  15.8           68
##  6 DUPLEIX              67                     1  16.1           68
##  7 DUPLEIX              67                     1  16.3           68
##  8 SAHEL                67                     0  17.6           67
##  9 SAHEL                67                     0  18             67
## 10 SAHEL                67                     0  18.1           67
## # … with 67,344 more rows
…
min_rank returns the rank of the observation when considering the variable given as argument (there are many different ways of computing ranks, see ?min_rank for details.)

However, the latter answer does not show the stations in increasing order of longitude.

3.5.12 Grouping data and calculating group-wise summary statistics: group_by and summarise

Suppose we want to identify the busiest stations in the system in the sense of having, on average, the most bikes taken out (and thus the highest number of available bike stands – this is assuming JCDecaux replenish all bike stations in the same way, which is not quite what is happening in reality; there are better, but more complex, ways of defining “busy”).

To calculate the average number of available bike stands per station we need to first group the data by bike station and then compute the average number of bike stands available

bikes %>% group_by(name) %>%                             # Group by station name
  summarise(avg_stands=mean(available_bike_stands)) %>%  # Calculate averages
  arrange(desc(avg_stands))                              # Sort in descending order

## # A tibble: 928 × 2
##    name                               avg_stands
##    <chr>                                   <dbl>
##  1 PANTIN                                   70.3
##  2 BELLEVILLE (20041)                       65.1
##  3 PLACE ADOLPHE CHERIOUX                   60  
##  4 HIPPODROME D AUTEUIL                     60.0
##  5 RUE DES BOULETS ( COMPLEMENTAIRE )       55  
##  6 PLACE DE LA PORTE DE CHATILLON           54.9
##  7 PORTE DE LA CHAPELLE                     54.1
##  8 CHARMES (FONTENAY SOUS BOIS)             53.5
##  9 PORTE DE MONTROUGE                       53  
## 10 ALLENDE (PANTIN)                         52.9
## # … with 918 more rows
…
group_by can be also used to limit the scope of subsequent calls to other functions such as filter, arrange or slice. To make this more concrete, suppose we want to find for each time point the station which the most available bikes. We first have group the data by time and then find the station with the most available bikes.

bikes %>%                                     
  group_by(time) %>%                           # Group by time
  arrange(desc(available_bikes)) %>%           # Sort by bikes within each group
  slice (1)                                    # Return only top one per group

## # A tibble: 73 × 5
## # Groups:   time [73]
##    name          available_bikes available_bike_stands  time total_stands
##    <chr>                   <int>                 <int> <dbl>        <int>
##  1 MUSÉE D'ORSAY              65                     0  13             65
##  2 MUSÉE D'ORSAY              65                     0  13.1           65
##  3 MUSÉE D'ORSAY              65                     0  13.2           65
##  4 MUSÉE D'ORSAY              62                     3  13.2           65
##  5 METZ                       64                     0  13.3           64
##  6 DUPLEIX                    64                     4  13.4           68
##  7 METZ                       64                     0  13.5           64
##  8 MUSÉE D'ORSAY              63                     2  13.6           65
##  9 SAINT EMILION              63                     3  13.7           66
## 10 MUSÉE D'ORSAY              65                     0  13.8           65
## # … with 63 more rows

Alternatively, we can use filter and min_rank:

bikes %>%                                     
  group_by(time) %>%                           # Group by time
  filter(min_rank(desc(available_bikes))==1)   # Find largest in each group

## # A tibble: 92 × 5
## # Groups:   time [73]
##    name                      available_bikes available_bike_…  time total_stands
##    <chr>                               <int>            <int> <dbl>        <int>
##  1 MUSÉE D'ORSAY                          65                0  13             65
##  2 MUSÉE D'ORSAY                          65                0  13.1           65
##  3 MUSÉE D'ORSAY                          65                0  13.2           65
##  4 MUSÉE D'ORSAY                          62                3  13.2           65
##  5 MOUFFETARD EPEE DE BOIS                62                1  13.2           63
##  6 SAINT PLACIDE CHERCHE MI…              62                0  13.2           62
##  7 METZ                                   64                0  13.3           64
##  8 DUPLEIX                                64                4  13.4           68
##  9 METZ                                   64                0  13.4           64
## 10 METZ                                   64                0  13.5           64
## # … with 82 more rows
You might have noticed that the answers differ a little. The reason for this are ties: for example, at 1.15pm the stations at Mussée d’Orsay, Mouffetard Epée de Bois and Sainte Placide Cherche-Midi all had 62 bikes available. The former commands extracts just one of them, whereas the bottom command extracts all three.
(You would obtain the same results if you replaced min_rank by row_number, which breaks ties by using in doubt the order in the data set).

3.5.15 Merging (joining) data sets using the join-type functions

Suppose we want to extract the data from bikes relating to bike stations in Hauts-de-Seine only. The table bikes does not however contain any information about the département in which the stations are located. We need to merge the information from the stations and bikes. This can be done using one of the join functions of dplyr. We will use inner_join, which only retains cases if there are corresponding entries in both data sets: this corresponds to the default behaviour of the R function merge.

The join functions will be default use the columns with common names across the two data sets (“natural join”).

bikes %>% inner_join(stations) %>%              # Merge data (using common variable: name)
  filter(departement=="Hauts-de-Seine")

## Joining, by = "name"

## # A tibble: 5,333 × 10
##    name  available_bikes available_bike_…  time total_stands    id address   lng
##    <chr>           <int>            <int> <dbl>        <int> <dbl> <chr>   <dbl>
##  1 SOLJ…              56                4    13           60 28002 BOULEV…  2.25
##  2 DE G…               3               19    13           22 22005 195 AV…  2.26
##  3 NATI…              20                3    13           23 21015 39 RUE…  2.24
##  4 MONT…              20                5    13           25 22011 7 RUE …  2.28
##  5 PETI…              22                0    13           22 21113 2 RUE …  2.30
##  6 GREN…               9               12    13           21 21013 4 AVEN…  2.25
##  7 MART…               0               24    13           24 21703 5-7 AV…  2.29
##  8 MORI…              22                3    13           25 21106 2-4 RU…  2.31
##  9 SELL…              34               17    13           51 21501 RUE DE…  2.23
## 10 VALI…              22                2    13           24 21101 4 RUE …  2.30
## # … with 5,323 more rows, and 2 more variables: lat <dbl>, departement <chr>
…
