Chapter 5 Handling date-time data with lubridate | Visualising Data using R
…
ymd(20220802,tz="UTC")

## [1] "2022-08-02 UTC"

5.1.2 From individual components

Instead of a string, you sometimes may have individual components of the date-time spread across multiple columns. Looking at data provided within the nycflights13 library, we see

library(nycflights13)
library(tidyverse)

flights %>%
  select(year,month,day,hour,minute)

## # A tibble: 336,776 × 5
##     year month   day  hour minute
##    <int> <int> <int> <dbl>  <dbl>
##  1  2013     1     1     5     15
##  2  2013     1     1     5     29
##  3  2013     1     1     5     40
##  4  2013     1     1     5     45
##  5  2013     1     1     6      0
##  6  2013     1     1     5     58
##  7  2013     1     1     6      0
##  8  2013     1     1     6      0
##  9  2013     1     1     6      0
## 10  2013     1     1     6      0
## # … with 336,766 more rows
…
