3.4 Reading in data using readr | Visualising Data using R
…
ships <- read_delim("ships.txt", delim=' ' , na=".")

## Rows: 40 Columns: 5
## ── Column specification ────────────────────────────────────────────────────────
## Delimiter: " "
## chr (1): type
## dbl (4): year, period, service, incidents
## 
## ℹ Use `spec()` to retrieve the full column specification for this data.
## ℹ Specify the column types or set `show_col_types = FALSE` to quiet this message.

ships

## # A tibble: 40 × 5
##    type   year period service incidents
##    <chr> <dbl>  <dbl>   <dbl>     <dbl>
##  1 A        60     60     127         0
##  2 A        60     75      63         0
##  3 A        65     60      NA         3
##  4 A        65     75    1095         4
##  5 A        70     60    1512         6
##  6 A        70     75    3353        18
##  7 A        75     60       0         0
##  8 A        75     75    2244        11
##  9 B        60     60   44882        39
## 10 B        60     75   17176        29
## # … with 30 more rows
…
