3.3 Tibbles | Visualising Data using R
…
            Visualising Data using R

3.3 Tibbles

The package tibble provides tbl_df’s (or “tibbles”, which is easier to pronounce). They are a modern take on the built-in class data.frame.

One key advantage of tibbles is that they can store anything. A data.frame can only store a single value per “cell”, for example a number or a character string. However, in a tibble, you can store a list or even another tibble in a cell. An example of this is the tibble starwars from the package dplyr. The column starships contains for each row the list of starships flown by that character (which is a list of different length depending on the character.)

library(dplyr)                             # Load library dplyr which contains the data
starwars[,c("name", "starships")]          # Print columns name and starships

## # A tibble: 87 × 2
##    name               starships
##    <chr>              <list>   
##  1 Luke Skywalker     <chr [2]>
##  2 C-3PO              <chr [0]>
##  3 R2-D2              <chr [0]>
##  4 Darth Vader        <chr [1]>
##  5 Leia Organa        <chr [0]>
##  6 Owen Lars          <chr [0]>
##  7 Beru Whitesun lars <chr [0]>
##  8 R5-D4              <chr [0]>
##  9 Biggs Darklighter  <chr [1]>
## 10 Obi-Wan Kenobi     <chr [5]>
## # … with 77 more rows
…
